…
``` r
d
```

    ## # A tibble: 36 × 30
    ##    date        TSLA anticipation positive trust  fear negative sadness disgust
    ##    <date>     <dbl>        <dbl>    <dbl> <dbl> <dbl>    <dbl>   <dbl>   <dbl>
    ##  1 2021-11-03     0            0        1     2     0        0       0       0
    ##  2 2021-11-04     3           46      119    50    25       54      22      11
    ##  3 2021-11-05     0           70      168    93    38       62      31       7
    ##  4 2021-11-08     0           48       93    51    22       39      12       5
    ##  5 2021-11-09     2           64      124    61    31       59      23       7
    ##  6 2021-11-10     2           62      125    62    46       57      21      10
    ##  7 2021-11-11     2           48      126    66    37       55      28       6
    ##  8 2021-11-12     2           49      107    63    29       57      25       6
    ##  9 2021-11-15     3           67      152    91    47       74      28       6
    ## 10 2021-11-16     4           77      120    72    41       64      29       4
    ## # … with 26 more rows, and 21 more variables: joy <dbl>, surprise <dbl>,
    ## #   anger <dbl>, symbol <chr>, open <dbl>, high <dbl>, low <dbl>, close <dbl>,
    ## #   volume <dbl>, adjusted <dbl>, TSLA1 <dbl>, anticipation1 <dbl>,
    ## #   positive1 <dbl>, trust1 <dbl>, fear1 <dbl>, negative1 <dbl>,
    ## #   sadness1 <dbl>, disgust1 <dbl>, joy1 <dbl>, surprise1 <dbl>, anger1 <dbl>
…
Make a basic recipe/formula to model the adjusted price of TSLA using
the lagged variables.

``` r
basicRecipe = recipe(adjusted~ TSLA1 + anticipation1 + positive1 + trust1 + fear1 + negative1 + sadness1 + disgust1 + joy1 + surprise1 + anger1 + date, trs) 


basicRecipe %>% prep() %>% juice() 
```

    ## # A tibble: 31 × 13
    ##    TSLA1 anticipation1 positive1 trust1 fear1 negative1 sadness1 disgust1  joy1
    ##    <dbl>         <dbl>     <dbl>  <dbl> <dbl>     <dbl>    <dbl>    <dbl> <dbl>
    ##  1     1             2         2      2     0         2        1        0     1
    ##  2     0             0         1      2     0         0        0        0     1
    ##  3     3            46       119     50    25        54       22       11    26
    ##  4     0            22        36     19    11        14        3        1    13
    ##  5     0            48        93     51    22        39       12        5    20
    ##  6     2            64       124     61    31        59       23        7    39
    ##  7     2            62       125     62    46        57       21       10    37
    ##  8     2            48       126     66    37        55       28        6    37
    ##  9     0            11        31     21     5        11        6        2    12
    ## 10     3            67       152     91    47        74       28        6    44
    ## # … with 21 more rows, and 4 more variables: surprise1 <dbl>, anger1 <dbl>,
    ## #   date <date>, adjusted <dbl>
…
